"ｶﾞ"=>"ガ"
"ｷﾞ"=>"ギ"
"ｸﾞ"=>"グ"
"ｹﾞ"=>"ゲ"
"ｺﾞ"=>"ゴ"
"ｻﾞ"=>"ザ"
"ｼﾞ"=>"ジ"
"ｽﾞ"=>"ズ"
"ｾﾞ"=>"ゼ"
"ｿﾞ"=>"ゾ"
"ﾀﾞ"=>"ダ"
"ﾁﾞ"=>"ヂ"
"ﾂﾞ"=>"ヅ"
"ﾃﾞ"=>"デ"
"ﾄﾞ"=>"ド"
"ﾊﾟ"=>"パ"
"ﾋﾟ"=>"ピ"
"ﾌﾟ"=>"プ"
"ﾍﾟ"=>"ペ"
"ﾎﾟ"=>"ポ"
"ﾊﾞ"=>"バ"
"ﾋﾞ"=>"ビ"
"ﾌﾞ"=>"ブ"
"ﾍﾞ"=>"ベ"
"ﾎﾞ"=>"ボ"
"ｳﾞ"=>"ヴ"
"ﾜﾞ"=>"ヷ"
"ｦﾞ"=>"ヺ"
